[{
    "tag": "div",
    "class": "stp--new-product-tile-container desktop",
    "type": "container",
    "node": [{
            "tag": "div",
            "class": "product-info",
            "type": "container",
            "node": {
                "tag": "a",
                "class": "product-title scTrack pfm",
                "type": "data",
                "attributes": {
                    "href": "product_link",
                    "text": "product_title",
                    "sku": "sku_number"
                }
            }
        },
        {
            "tag": "div",
            "class": "product-image",
            "type": "container",
            "node": {
                "tag": "a",
                "class": "scTrack pfm",
                "type": "data",
                "attributes": {
                    "href" : "image_link",
                    "text" : "image_text"
                }
            }
        }
    ]
}]